{
  "account": {
    "currencyCode": [
      "{{Moneda1}}",
      "{{Moneda2}}"
    ],
    "tariff": "{{Plan}}"
  },
  "company": {
    "identityDocument": {
      "type": "{{Tipodocumento}}",
      "number": "{{Nrodocumento}}"
    },
    "companyName": "INVERSIONES SOL S.R.L",
    "registrationNumber": "1111",
    "majorCustomers": "PERSONAS",
    "constitutionDate": "2010-08-14",
    "economicActivityCode": "1520",
    "economicActivityName": "FABRICACIÓN DE CALZADO",
    "remainsCompany": "SI",
    "societyType": "SAC",
    "personType": "{{TipopersonaEmp}}",
    "address": {
      "streetType": "AVENIDA",
      "streetName": "SAUCES",
      "streetNumber": "152",
      "department": "LIMA",
      "province": "LIMA",
      "district": "LIMA",
      "block": "A",
      "lot": "45",
      "apartment": "",
      "neighborhood": "",
      "landmark": ""
    },
    "legalRepresentatives": [
      {
        "personType": "{{TipopersonaRL}}",
        "identityDocument": {
          "number": "{{NumerodocumentoRL}}",
          "type": "{{TipodocumentoRL}}"
        },
        "firstName": "RICARDO",
        "middleName": "",
        "lastName": "OLIVERA",
        "motherLastName": "PALOMINO",
        "fullName": "OLIVERA PALOMINO RODRIGO",
        "birthDate": "1974-05-06",
        "gender": "MASCULINO",
        "maritalStatus": "SOLTERO",
        "emails": [
          {
            "type": "PERSONAL",
            "value": "EVERIS.MAIL.BOX@GMAIL.COM"
          }
        ],
        "phones": [
          {
            "type": "CELULAR",
            "carrier": "CLARO",
            "number": "989491752"
          }
        ],
        "address": [
          {
            "apartment": "",
            "block": "",
            "department": "LIMA",
            "province": "LIMA",
            "district": "LIMA",
            "landmark": "",
            "lot": "",
            "neighborhood": "",
            "streetName": "Las Golondrinas",
            "streetNumber": "1223",
            "streetType": "CALLE"
          }
        ],
        "configuration": {
          "ldpd": {
            "accept": true
          },
          "notificationEmail": {
            "accept": true
          }
        }
      }
    ]
  },
  "store": {
    "storeCode": "898"
  },
  "configuration": {
    "affidavit": {
      "accept": true,
      "fiscalResidences": []
    },
    "agency": {
      "code": "200",
      "name": "HUANUCO"
    },
    "device": {
      "type": "PC",
      "deviceId": "172.168.125.145"
    }
  }
}